p, unauthorized, /v1/swagger/*, GET
p, unauthorized, /v1/swagger/index.html, POST
p, unauthorized, /favicon.ico, GET
p, unauthorized, /v1/auth/register, POST
p, unauthorized, /v1/auth/login, POST
p, unauthorized, /v1/auth/refresh-accesstoken/{token}, POST
p, unauthorized, /v1/auth/verify, POST
p, unauthorized, /v1/auth/verify-forgot-password, POST
p, unauthorized, /v1/auth/forgot-password, POST
p, admin, /v1/auth/delete/{id}, DELETE

p, admin, /v1/main, GET
p, admin, /v1/orders, GET

p, admin, /v1/service, POST
p, admin, /v1/service/all, GET
p, admin, /v1/service/id, GET
p, admin, /v1/service/name, GET
p, admin, /v1/service/search, GET
p, admin, /v1/service, PUT
p, admin, /v1/service, DELETE

p, admin, /v1/client/id, GET
p, admin, /v1/client/all, GET
p, admin, /v1/client/search, GET
p, admin, /v1/client, DELETE

p, admin, /v1/order, POST
p, admin, /v1/order, GET
p, admin, /v1/order/all, GET
p, admin, /v1/order/search, GET
p, admin, /v1/order/client, GET
p, admin, /v1/order, PUT
p, admin, /v1/order/status, PUT
p, admin, /v1/order, DELETE